# Local development dependencies go here
-r base.txt

coverage==4.4.1
django-coverage-plugin==1.5.0

Sphinx==1.6.3
django-extensions==1.8.1
Werkzeug==0.12.2
django-test-plus==1.0.18
factory-boy==2.9.1

django-debug-toolbar==1.8

# improved REPL
ipdb==0.10.3

pytest-django==3.1.2
pytest-sugar==0.8.0

# WSGI Handler
# ------------------------------------------------
gevent==1.2.2
gunicorn==19.7.1

# Static and Media Storage
# ------------------------------------------------
boto==2.48.0
boto3==1.4.5
django-storages-redux==1.3.3
django-storages==1.6.2

# Email backends for Mailgun, Postmark, SendGrid and more
# -------------------------------------------------------
django-anymail==0.11.1

# Raven is the Sentry client
# --------------------------
raven==6.1.0
